# Destino: 3530706 - Mogi-Guaçu
# -------------------------------------------------------------------
3500105;Adamantina;3530706;Mogi-Guaçu;512
3500204;Adolfo;3530706;Mogi-Guaçu;368
3500303;Aguaí;3530706;Mogi-Guaçu;38
3500402;Águas da Prata;3530706;Mogi-Guaçu;69
3500501;Águas de Lindóia;3530706;Mogi-Guaçu;59
3500550;Águas de Santa Bárbara;3530706;Mogi-Guaçu;298
3500600;Águas de São Pedro;3530706;Mogi-Guaçu;124
3500709;Agudos;3530706;Mogi-Guaçu;268
3500758;Alambari;3530706;Mogi-Guaçu;220
3500808;Alfredo Marcondes;3530706;Mogi-Guaçu;574
3500907;Altair;3530706;Mogi-Guaçu;354
3501004;Altinópolis;3530706;Mogi-Guaçu;179
3501103;Alto Alegre;3530706;Mogi-Guaçu;424
3501152;Alumínio;3530706;Mogi-Guaçu;178
3501202;Álvares Florence;3530706;Mogi-Guaçu;451
3501301;Álvares Machado;3530706;Mogi-Guaçu;556
3501400;Álvaro de Carvalho;3530706;Mogi-Guaçu;356
3501509;Alvinlândia;3530706;Mogi-Guaçu;360
3501608;Americana;3530706;Mogi-Guaçu;78
3501707;Américo Brasiliense;3530706;Mogi-Guaçu;197
3501806;Américo de Campos;3530706;Mogi-Guaçu;440
3501905;Amparo;3530706;Mogi-Guaçu;62
3502002;Analândia;3530706;Mogi-Guaçu;111
3502101;Andradina;3530706;Mogi-Guaçu;561
3502200;Angatuba;3530706;Mogi-Guaçu;267
3502309;Anhembi;3530706;Mogi-Guaçu;166
3502408;Anhumas;3530706;Mogi-Guaçu;553
3502507;Aparecida;3530706;Mogi-Guaçu;297
3502606;Aparecida dOeste;3530706;Mogi-Guaçu;543
3502705;Apiaí;3530706;Mogi-Guaçu;378
3502754;Araçariguama;3530706;Mogi-Guaçu;177
3502804;Araçatuba;3530706;Mogi-Guaçu;461
3502903;Araçoiaba da Serra;3530706;Mogi-Guaçu;188
3503000;Aramina;3530706;Mogi-Guaçu;317
3503109;Arandu;3530706;Mogi-Guaçu;283
3503158;Arapeí;3530706;Mogi-Guaçu;425
3503208;Araraquara;3530706;Mogi-Guaçu;187
3503307;Araras;3530706;Mogi-Guaçu;61
3503356;Arco-Íris;3530706;Mogi-Guaçu;466
3503406;Arealva;3530706;Mogi-Guaçu;261
3503505;Areias;3530706;Mogi-Guaçu;374
3503604;Areiópolis;3530706;Mogi-Guaçu;227
3503703;Ariranha;3530706;Mogi-Guaçu;290
3503802;Artur Nogueira;3530706;Mogi-Guaçu;42
3503901;Arujá;3530706;Mogi-Guaçu;203
3503950;Aspásia;3530706;Mogi-Guaçu;521
3504008;Assis;3530706;Mogi-Guaçu;438
3504107;Atibaia;3530706;Mogi-Guaçu;129
3504206;Auriflama;3530706;Mogi-Guaçu;482
3504305;Avaí;3530706;Mogi-Guaçu;301
3504404;Avanhandava;3530706;Mogi-Guaçu;406
3504503;Avaré;3530706;Mogi-Guaçu;270
3504602;Bady Bassitt;3530706;Mogi-Guaçu;364
3504701;Balbinos;3530706;Mogi-Guaçu;334
3504800;Bálsamo;3530706;Mogi-Guaçu;377
3504909;Bananal;3530706;Mogi-Guaçu;443
3505005;Barão de Antonina;3530706;Mogi-Guaçu;383
3505104;Barbosa;3530706;Mogi-Guaçu;432
3505203;Bariri;3530706;Mogi-Guaçu;236
3505302;Barra Bonita;3530706;Mogi-Guaçu;207
3505351;Barra do Chapéu;3530706;Mogi-Guaçu;402
3505401;Barra do Turvo;3530706;Mogi-Guaçu;465
3505500;Barretos;3530706;Mogi-Guaçu;313
3505609;Barrinha;3530706;Mogi-Guaçu;231
3505708;Barueri;3530706;Mogi-Guaçu;159
3505807;Bastos;3530706;Mogi-Guaçu;470
3505906;Batatais;3530706;Mogi-Guaçu;206
3506003;Bauru;3530706;Mogi-Guaçu;262
3506102;Bebedouro;3530706;Mogi-Guaçu;272
3506201;Bento de Abreu;3530706;Mogi-Guaçu;496
3506300;Bernardino de Campos;3530706;Mogi-Guaçu;329
3506359;Bertioga;3530706;Mogi-Guaçu;272
3506409;Bilac;3530706;Mogi-Guaçu;457
3506508;Birigui;3530706;Mogi-Guaçu;440
3506607;Biritiba Mirim;3530706;Mogi-Guaçu;237
3506706;Boa Esperança do Sul;3530706;Mogi-Guaçu;215
3506805;Bocaina;3530706;Mogi-Guaçu;212
3506904;Bofete;3530706;Mogi-Guaçu;204
3507001;Boituva;3530706;Mogi-Guaçu;174
3507100;Bom Jesus dos Perdões;3530706;Mogi-Guaçu;136
3507159;Bom Sucesso de Itararé;3530706;Mogi-Guaçu;404
3507209;Borá;3530706;Mogi-Guaçu;454
3507308;Boracéia;3530706;Mogi-Guaçu;241
3507407;Borborema;3530706;Mogi-Guaçu;290
3507456;Borebi;3530706;Mogi-Guaçu;264
3507506;Botucatu;3530706;Mogi-Guaçu;209
3507605;Bragança Paulista;3530706;Mogi-Guaçu;108
3507704;Braúna;3530706;Mogi-Guaçu;433
3507753;Brejo Alegre;3530706;Mogi-Guaçu;448
3507803;Brodósqui;3530706;Mogi-Guaçu;217
3507902;Brotas;3530706;Mogi-Guaçu;159
3508009;Buri;3530706;Mogi-Guaçu;310
3508108;Buritama;3530706;Mogi-Guaçu;448
3508207;Buritizal;3530706;Mogi-Guaçu;315
3508306;Cabrália Paulista;3530706;Mogi-Guaçu;302
3508405;Cabreúva;3530706;Mogi-Guaçu;134
3508504;Caçapava;3530706;Mogi-Guaçu;233
3508603;Cachoeira Paulista;3530706;Mogi-Guaçu;329
3508702;Caconde;3530706;Mogi-Guaçu;133
3508801;Cafelândia;3530706;Mogi-Guaçu;346
3508900;Caiabu;3530706;Mogi-Guaçu;535
3509007;Caieiras;3530706;Mogi-Guaçu;145
3509106;Caiuá;3530706;Mogi-Guaçu;615
3509205;Cajamar;3530706;Mogi-Guaçu;136
3509254;Cajati;3530706;Mogi-Guaçu;374
3509304;Cajobi;3530706;Mogi-Guaçu;311
3509403;Cajuru;3530706;Mogi-Guaçu;144
3509452;Campina do Monte Alegre;3530706;Mogi-Guaçu;276
3509502;Campinas;3530706;Mogi-Guaçu;74
3509601;Campo Limpo Paulista;3530706;Mogi-Guaçu;125
3509700;Campos do Jordão;3530706;Mogi-Guaçu;294
3509809;Campos Novos Paulista;3530706;Mogi-Guaçu;399
3509908;Cananéia;3530706;Mogi-Guaçu;400
3509957;Canas;3530706;Mogi-Guaçu;322
3510005;Cândido Mota;3530706;Mogi-Guaçu;434
3510104;Cândido Rodrigues;3530706;Mogi-Guaçu;265
3510153;Canitar;3530706;Mogi-Guaçu;378
3510203;Capão Bonito;3530706;Mogi-Guaçu;284
3510302;Capela do Alto;3530706;Mogi-Guaçu;202
3510401;Capivari;3530706;Mogi-Guaçu;123
3510500;Caraguatatuba;3530706;Mogi-Guaçu;295
3510609;Carapicuíba;3530706;Mogi-Guaçu;155
3510708;Cardoso;3530706;Mogi-Guaçu;472
3510807;Casa Branca;3530706;Mogi-Guaçu;75
3510906;Cássia dos Coqueiros;3530706;Mogi-Guaçu;150
3511003;Castilho;3530706;Mogi-Guaçu;575
3511102;Catanduva;3530706;Mogi-Guaçu;298
3511201;Catiguá;3530706;Mogi-Guaçu;313
3511300;Cedral;3530706;Mogi-Guaçu;338
3511409;Cerqueira César;3530706;Mogi-Guaçu;295
3511508;Cerquilho;3530706;Mogi-Guaçu;158
3511607;Cesário Lange;3530706;Mogi-Guaçu;185
3511706;Charqueada;3530706;Mogi-Guaçu;116
3557204;Chavantes;3530706;Mogi-Guaçu;357
3511904;Clementina;3530706;Mogi-Guaçu;450
3512001;Colina;3530706;Mogi-Guaçu;296
3512100;Colômbia;3530706;Mogi-Guaçu;357
3512209;Conchal;3530706;Mogi-Guaçu;35
3512308;Conchas;3530706;Mogi-Guaçu;167
3512407;Cordeirópolis;3530706;Mogi-Guaçu;72
3512506;Coroados;3530706;Mogi-Guaçu;430
3512605;Coronel Macedo;3530706;Mogi-Guaçu;348
3512704;Corumbataí;3530706;Mogi-Guaçu;103
3512803;Cosmópolis;3530706;Mogi-Guaçu;52
3512902;Cosmorama;3530706;Mogi-Guaçu;414
3513009;Cotia;3530706;Mogi-Guaçu;175
3513108;Cravinhos;3530706;Mogi-Guaçu;172
3513207;Cristais Paulista;3530706;Mogi-Guaçu;272
3513306;Cruzália;3530706;Mogi-Guaçu;483
3513405;Cruzeiro;3530706;Mogi-Guaçu;344
3513504;Cubatão;3530706;Mogi-Guaçu;221
3513603;Cunha;3530706;Mogi-Guaçu;348
3513702;Descalvado;3530706;Mogi-Guaçu;123
3513801;Diadema;3530706;Mogi-Guaçu;185
3513850;Dirce Reis;3530706;Mogi-Guaçu;521
3513900;Divinolândia;3530706;Mogi-Guaçu;110
3514007;Dobrada;3530706;Mogi-Guaçu;232
3514106;Dois Córregos;3530706;Mogi-Guaçu;199
3514205;Dolcinópolis;3530706;Mogi-Guaçu;512
3514304;Dourado;3530706;Mogi-Guaçu;190
3514403;Dracena;3530706;Mogi-Guaçu;568
3514502;Duartina;3530706;Mogi-Guaçu;312
3514601;Dumont;3530706;Mogi-Guaçu;210
3514700;Echaporã;3530706;Mogi-Guaçu;408
3514809;Eldorado;3530706;Mogi-Guaçu;387
3514908;Elias Fausto;3530706;Mogi-Guaçu;115
3514924;Elisiário;3530706;Mogi-Guaçu;311
3514957;Embaúba;3530706;Mogi-Guaçu;331
3515004;Embu;3530706;Mogi-Guaçu;171
3515103;Embu-Guaçu;3530706;Mogi-Guaçu;195
3515129;Emilianópolis;3530706;Mogi-Guaçu;591
3515152;Engenheiro Coelho;3530706;Mogi-Guaçu;40
3515186;Espírito Santo do Pinhal;3530706;Mogi-Guaçu;32
3515194;Espírito Santo do Turvo;3530706;Mogi-Guaçu;321
3557303;Estiva Gerbi;3530706;Mogi-Guaçu;14
3515301;Estrela do Norte;3530706;Mogi-Guaçu;598
3515202;Estrela dOeste;3530706;Mogi-Guaçu;598
3515350;Euclides da Cunha Paulista;3530706;Mogi-Guaçu;706
3515400;Fartura;3530706;Mogi-Guaçu;364
3515608;Fernando Prestes;3530706;Mogi-Guaçu;275
3515509;Fernandópolis;3530706;Mogi-Guaçu;466
3515657;Fernão;3530706;Mogi-Guaçu;318
3515707;Ferraz de Vasconcelos;3530706;Mogi-Guaçu;203
3515806;Flora Rica;3530706;Mogi-Guaçu;564
3515905;Floreal;3530706;Mogi-Guaçu;435
3516002;Flórida Paulista;3530706;Mogi-Guaçu;526
3516101;Florínea;3530706;Mogi-Guaçu;478
3516200;Franca;3530706;Mogi-Guaçu;257
3516309;Francisco Morato;3530706;Mogi-Guaçu;140
3516408;Franco da Rocha;3530706;Mogi-Guaçu;148
3516507;Gabriel Monteiro;3530706;Mogi-Guaçu;463
3516606;Gália;3530706;Mogi-Guaçu;327
3516705;Garça;3530706;Mogi-Guaçu;338
3516804;Gastão Vidigal;3530706;Mogi-Guaçu;452
3516853;Gavião Peixoto;3530706;Mogi-Guaçu;220
3516903;General Salgado;3530706;Mogi-Guaçu;459
3517000;Getulina;3530706;Mogi-Guaçu;387
3517109;Glicério;3530706;Mogi-Guaçu;424
3517208;Guaiçara;3530706;Mogi-Guaçu;373
3517307;Guaimbê;3530706;Mogi-Guaçu;383
3517406;Guaíra;3530706;Mogi-Guaçu;311
3517505;Guapiaçu;3530706;Mogi-Guaçu;353
3517604;Guapiara;3530706;Mogi-Guaçu;317
3517703;Guará;3530706;Mogi-Guaçu;279
3517802;Guaraçaí;3530706;Mogi-Guaçu;540
3517901;Guaraci;3530706;Mogi-Guaçu;348
3518008;Guarani dOeste;3530706;Mogi-Guaçu;493
3518107;Guarantã;3530706;Mogi-Guaçu;338
3518206;Guararapes;3530706;Mogi-Guaçu;478
3518305;Guararema;3530706;Mogi-Guaçu;210
3518404;Guaratinguetá;3530706;Mogi-Guaçu;303
3518503;Guareí;3530706;Mogi-Guaçu;224
3518602;Guariba;3530706;Mogi-Guaçu;220
3518701;Guarujá;3530706;Mogi-Guaçu;251
3518800;Guarulhos;3530706;Mogi-Guaçu;174
3518859;Guatapará;3530706;Mogi-Guaçu;199
3518909;Guzolândia;3530706;Mogi-Guaçu;491
3519006;Herculândia;3530706;Mogi-Guaçu;431
3519055;Holambra;3530706;Mogi-Guaçu;42
3519071;Hortolândia;3530706;Mogi-Guaçu;86
3519105;Iacanga;3530706;Mogi-Guaçu;297
3519204;Iacri;3530706;Mogi-Guaçu;467
3519253;Iaras;3530706;Mogi-Guaçu;288
3519303;Ibaté;3530706;Mogi-Guaçu;161
3519402;Ibirá;3530706;Mogi-Guaçu;330
3519501;Ibirarema;3530706;Mogi-Guaçu;398
3519600;Ibitinga;3530706;Mogi-Guaçu;261
3519709;Ibiúna;3530706;Mogi-Guaçu;205
3519808;Icém;3530706;Mogi-Guaçu;376
3519907;Iepê;3530706;Mogi-Guaçu;519
3520004;Igaraçu do Tietê;3530706;Mogi-Guaçu;210
3520103;Igarapava;3530706;Mogi-Guaçu;325
3520202;Igaratá;3530706;Mogi-Guaçu;174
3520301;Iguape;3530706;Mogi-Guaçu;344
3520426;Ilha Comprida;3530706;Mogi-Guaçu;351
3520442;Ilha Solteira;3530706;Mogi-Guaçu;574
3520400;Ilhabela;3530706;Mogi-Guaçu;331
3520509;Indaiatuba;3530706;Mogi-Guaçu;107
3520608;Indiana;3530706;Mogi-Guaçu;529
3520707;Indiaporã;3530706;Mogi-Guaçu;511
3520806;Inúbia Paulista;3530706;Mogi-Guaçu;499
3520905;Ipaussu;3530706;Mogi-Guaçu;347
3521002;Iperó;3530706;Mogi-Guaçu;182
3521101;Ipeúna;3530706;Mogi-Guaçu;105
3521150;Ipiguá;3530706;Mogi-Guaçu;371
3521200;Iporanga;3530706;Mogi-Guaçu;410
3521309;Ipuã;3530706;Mogi-Guaçu;291
3521408;Iracemápolis;3530706;Mogi-Guaçu;78
3521507;Irapuã;3530706;Mogi-Guaçu;343
3521606;Irapuru;3530706;Mogi-Guaçu;550
3521705;Itaberá;3530706;Mogi-Guaçu;377
3521804;Itaí;3530706;Mogi-Guaçu;310
3521903;Itajobi;3530706;Mogi-Guaçu;307
3522000;Itaju;3530706;Mogi-Guaçu;247
3522109;Itanhaém;3530706;Mogi-Guaçu;271
3522158;Itaóca;3530706;Mogi-Guaçu;397
3522208;Itapecerica da Serra;3530706;Mogi-Guaçu;179
3522307;Itapetininga;3530706;Mogi-Guaçu;222
3522406;Itapeva;3530706;Mogi-Guaçu;343
3522505;Itapevi;3530706;Mogi-Guaçu;168
3522604;Itapira;3530706;Mogi-Guaçu;22
3522653;Itapirapuã Paulista;3530706;Mogi-Guaçu;432
3522703;Itápolis;3530706;Mogi-Guaçu;267
3522802;Itaporanga;3530706;Mogi-Guaçu;369
3522901;Itapuí;3530706;Mogi-Guaçu;232
3523008;Itapura;3530706;Mogi-Guaçu;590
3523107;Itaquaquecetuba;3530706;Mogi-Guaçu;194
3523206;Itararé;3530706;Mogi-Guaçu;398
3523305;Itariri;3530706;Mogi-Guaçu;296
3523404;Itatiba;3530706;Mogi-Guaçu;95
3523503;Itatinga;3530706;Mogi-Guaçu;245
3523602;Itirapina;3530706;Mogi-Guaçu;126
3523701;Itirapuã;3530706;Mogi-Guaçu;240
3523800;Itobi;3530706;Mogi-Guaçu;82
3523909;Itu;3530706;Mogi-Guaçu;128
3524006;Itupeva;3530706;Mogi-Guaçu;112
3524105;Ituverava;3530706;Mogi-Guaçu;292
3524204;Jaborandi;3530706;Mogi-Guaçu;304
3524303;Jaboticabal;3530706;Mogi-Guaçu;228
3524402;Jacareí;3530706;Mogi-Guaçu;201
3524501;Jaci;3530706;Mogi-Guaçu;376
3524600;Jacupiranga;3530706;Mogi-Guaçu;361
3524709;Jaguariúna;3530706;Mogi-Guaçu;49
3524808;Jales;3530706;Mogi-Guaçu;499
3524907;Jambeiro;3530706;Mogi-Guaçu;243
3525003;Jandira;3530706;Mogi-Guaçu;163
3525102;Jardinópolis;3530706;Mogi-Guaçu;208
3525201;Jarinu;3530706;Mogi-Guaçu;120
3525300;Jaú;3530706;Mogi-Guaçu;212
3525409;Jeriquara;3530706;Mogi-Guaçu;295
3525508;Joanópolis;3530706;Mogi-Guaçu;172
3525607;João Ramalho;3530706;Mogi-Guaçu;472
3525706;José Bonifácio;3530706;Mogi-Guaçu;394
3525805;Júlio Mesquita;3530706;Mogi-Guaçu;364
3525854;Jumirim;3530706;Mogi-Guaçu;156
3525904;Jundiaí;3530706;Mogi-Guaçu;110
3526001;Junqueirópolis;3530706;Mogi-Guaçu;558
3526100;Juquiá;3530706;Mogi-Guaçu;287
3526209;Juquitiba;3530706;Mogi-Guaçu;216
3526308;Lagoinha;3530706;Mogi-Guaçu;318
3526407;Laranjal Paulista;3530706;Mogi-Guaçu;152
3526506;Lavínia;3530706;Mogi-Guaçu;521
3526605;Lavrinhas;3530706;Mogi-Guaçu;350
3526704;Leme;3530706;Mogi-Guaçu;70
3526803;Lençóis Paulista;3530706;Mogi-Guaçu;242
3526902;Limeira;3530706;Mogi-Guaçu;65
3527009;Lindóia;3530706;Mogi-Guaçu;52
3527108;Lins;3530706;Mogi-Guaçu;365
3527207;Lorena;3530706;Mogi-Guaçu;316
3527256;Lourdes;3530706;Mogi-Guaçu;467
3527306;Louveira;3530706;Mogi-Guaçu;98
3527405;Lucélia;3530706;Mogi-Guaçu;507
3527504;Lucianópolis;3530706;Mogi-Guaçu;325
3527603;Luís Antônio;3530706;Mogi-Guaçu;153
3527702;Luiziânia;3530706;Mogi-Guaçu;443
3527801;Lupércio;3530706;Mogi-Guaçu;361
3527900;Lutécia;3530706;Mogi-Guaçu;424
3528007;Macatuba;3530706;Mogi-Guaçu;231
3528106;Macaubal;3530706;Mogi-Guaçu;424
3528205;Macedônia;3530706;Mogi-Guaçu;481
3528403;Mairinque;3530706;Mogi-Guaçu;185
3528502;Mairiporã;3530706;Mogi-Guaçu;152
3528601;Manduri;3530706;Mogi-Guaçu;312
3528700;Marabá Paulista;3530706;Mogi-Guaçu;627
3528809;Maracaí;3530706;Mogi-Guaçu;466
3528858;Marapoama;3530706;Mogi-Guaçu;320
3528908;Mariápolis;3530706;Mogi-Guaçu;531
3529005;Marília;3530706;Mogi-Guaçu;368
3529104;Marinópolis;3530706;Mogi-Guaçu;536
3529203;Martinópolis;3530706;Mogi-Guaçu;516
3529302;Matão;3530706;Mogi-Guaçu;219
3529401;Mauá;3530706;Mogi-Guaçu;191
3529500;Mendonça;3530706;Mogi-Guaçu;362
3529609;Meridiano;3530706;Mogi-Guaçu;458
3529658;Mesópolis;3530706;Mogi-Guaçu;534
3529708;Miguelópolis;3530706;Mogi-Guaçu;320
3529807;Mineiros do Tietê;3530706;Mogi-Guaçu;206
3530003;Mira Estrela;3530706;Mogi-Guaçu;501
3529906;Miracatu;3530706;Mogi-Guaçu;282
3530102;Mirandópolis;3530706;Mogi-Guaçu;528
3530201;Mirante do Paranapanema;3530706;Mogi-Guaçu;614
3530300;Mirassol;3530706;Mogi-Guaçu;365
3530409;Mirassolândia;3530706;Mogi-Guaçu;380
3530508;Mococa;3530706;Mogi-Guaçu;108
3530607;Mogi das Cruzes;3530706;Mogi-Guaçu;215
3530805;Moji-Mirim;3530706;Mogi-Guaçu;8
3530904;Mombuca;3530706;Mogi-Guaçu;121
3531001;Monções;3530706;Mogi-Guaçu;442
3531100;Mongaguá;3530706;Mogi-Guaçu;254
3531209;Monte Alegre do Sul;3530706;Mogi-Guaçu;68
3531308;Monte Alto;3530706;Mogi-Guaçu;247
3531407;Monte Aprazível;3530706;Mogi-Guaçu;388
3531506;Monte Azul Paulista;3530706;Mogi-Guaçu;289
3531605;Monte Castelo;3530706;Mogi-Guaçu;611
3531803;Monte Mor;3530706;Mogi-Guaçu;100
3531704;Monteiro Lobato;3530706;Mogi-Guaçu;248
3531902;Morro Agudo;3530706;Mogi-Guaçu;259
3532009;Morungaba;3530706;Mogi-Guaçu;88
3532058;Motuca;3530706;Mogi-Guaçu;220
3532108;Murutinga do Sul;3530706;Mogi-Guaçu;549
3532157;Nantes;3530706;Mogi-Guaçu;528
3532207;Narandiba;3530706;Mogi-Guaçu;583
3532306;Natividade da Serra;3530706;Mogi-Guaçu;312
3532405;Nazaré Paulista;3530706;Mogi-Guaçu;147
3532504;Neves Paulista;3530706;Mogi-Guaçu;384
3532603;Nhandeara;3530706;Mogi-Guaçu;423
3532702;Nipoã;3530706;Mogi-Guaçu;408
3532801;Nova Aliança;3530706;Mogi-Guaçu;360
3532827;Nova Campina;3530706;Mogi-Guaçu;364
3532843;Nova Canaã Paulista;3530706;Mogi-Guaçu;560
3532868;Nova Castilho;3530706;Mogi-Guaçu;479
3532900;Nova Europa;3530706;Mogi-Guaçu;231
3533007;Nova Granada;3530706;Mogi-Guaçu;385
3533106;Nova Guataporanga;3530706;Mogi-Guaçu;592
3533205;Nova Independência;3530706;Mogi-Guaçu;591
3533304;Nova Luzitânia;3530706;Mogi-Guaçu;461
3533403;Nova Odessa;3530706;Mogi-Guaçu;94
3533254;Novais;3530706;Mogi-Guaçu;321
3533502;Novo Horizonte;3530706;Mogi-Guaçu;312
3533601;Nuporanga;3530706;Mogi-Guaçu;233
3533700;Ocauçu;3530706;Mogi-Guaçu;375
3533809;Óleo;3530706;Mogi-Guaçu;320
3533908;Olímpia;3530706;Mogi-Guaçu;325
3534005;Onda Verde;3530706;Mogi-Guaçu;377
3534104;Oriente;3530706;Mogi-Guaçu;391
3534203;Orindiúva;3530706;Mogi-Guaçu;404
3534302;Orlândia;3530706;Mogi-Guaçu;244
3534401;Osasco;3530706;Mogi-Guaçu;158
3534500;Oscar Bressane;3530706;Mogi-Guaçu;410
3534609;Osvaldo Cruz;3530706;Mogi-Guaçu;492
3534708;Ourinhos;3530706;Mogi-Guaçu;382
3534807;Ouro Verde;3530706;Mogi-Guaçu;587
3534757;Ouroeste;3530706;Mogi-Guaçu;502
3534906;Pacaembu;3530706;Mogi-Guaçu;537
3535002;Palestina;3530706;Mogi-Guaçu;406
3535101;Palmares Paulista;3530706;Mogi-Guaçu;294
3535200;Palmeira d Oeste;3530706;Mogi-Guaçu;527
3535309;Palmital;3530706;Mogi-Guaçu;417
3535408;Panorama;3530706;Mogi-Guaçu;606
3535507;Paraguaçu Paulista;3530706;Mogi-Guaçu;445
3535606;Paraibuna;3530706;Mogi-Guaçu;247
3535705;Paraíso;3530706;Mogi-Guaçu;295
3535804;Paranapanema;3530706;Mogi-Guaçu;314
3535903;Paranapuã;3530706;Mogi-Guaçu;520
3536000;Parapuã;3530706;Mogi-Guaçu;493
3536109;Pardinho;3530706;Mogi-Guaçu;222
3536208;Pariquera-Açu;3530706;Mogi-Guaçu;357
3536257;Parisi;3530706;Mogi-Guaçu;447
3536307;Patrocínio Paulista;3530706;Mogi-Guaçu;240
3536406;Paulicéia;3530706;Mogi-Guaçu;604
3536505;Paulínia;3530706;Mogi-Guaçu;75
3536570;Paulistânia;3530706;Mogi-Guaçu;308
3536604;Paulo de Faria;3530706;Mogi-Guaçu;417
3536703;Pederneiras;3530706;Mogi-Guaçu;234
3536802;Pedra Bela;3530706;Mogi-Guaçu;114
3536901;Pedranópolis;3530706;Mogi-Guaçu;461
3537008;Pedregulho;3530706;Mogi-Guaçu;294
3537107;Pedreira;3530706;Mogi-Guaçu;63
3537156;Pedrinhas Paulista;3530706;Mogi-Guaçu;485
3537206;Pedro de Toledo;3530706;Mogi-Guaçu;288
3537305;Penápolis;3530706;Mogi-Guaçu;412
3537404;Pereira Barreto;3530706;Mogi-Guaçu;537
3537503;Pereiras;3530706;Mogi-Guaçu;165
3537602;Peruíbe;3530706;Mogi-Guaçu;314
3537701;Piacatu;3530706;Mogi-Guaçu;469
3537800;Piedade;3530706;Mogi-Guaçu;195
3537909;Pilar do Sul;3530706;Mogi-Guaçu;216
3538006;Pindamonhangaba;3530706;Mogi-Guaçu;273
3538105;Pindorama;3530706;Mogi-Guaçu;291
3538204;Pinhalzinho;3530706;Mogi-Guaçu;91
3538303;Piquerobi;3530706;Mogi-Guaçu;593
3538501;Piquete;3530706;Mogi-Guaçu;334
3538600;Piracaia;3530706;Mogi-Guaçu;148
3538709;Piracicaba;3530706;Mogi-Guaçu;101
3538808;Piraju;3530706;Mogi-Guaçu;337
3538907;Pirajuí;3530706;Mogi-Guaçu;318
3539004;Pirangi;3530706;Mogi-Guaçu;278
3539103;Pirapora do Bom Jesus;3530706;Mogi-Guaçu;158
3539202;Pirapozinho;3530706;Mogi-Guaçu;567
3539301;Pirassununga;3530706;Mogi-Guaçu;83
3539400;Piratininga;3530706;Mogi-Guaçu;276
3539509;Pitangueiras;3530706;Mogi-Guaçu;243
3539608;Planalto;3530706;Mogi-Guaçu;423
3539707;Platina;3530706;Mogi-Guaçu;428
3539806;Poá;3530706;Mogi-Guaçu;200
3539905;Poloni;3530706;Mogi-Guaçu;401
3540002;Pompéia;3530706;Mogi-Guaçu;401
3540101;Pongaí;3530706;Mogi-Guaçu;327
3540200;Pontal;3530706;Mogi-Guaçu;230
3540259;Pontalinda;3530706;Mogi-Guaçu;492
3540309;Pontes Gestal;3530706;Mogi-Guaçu;446
3540408;Populina;3530706;Mogi-Guaçu;523
3540507;Porangaba;3530706;Mogi-Guaçu;191
3540606;Porto Feliz;3530706;Mogi-Guaçu;154
3540705;Porto Ferreira;3530706;Mogi-Guaçu;107
3540754;Potim;3530706;Mogi-Guaçu;312
3540804;Potirendaba;3530706;Mogi-Guaçu;345
3540853;Pracinha;3530706;Mogi-Guaçu;512
3540903;Pradópolis;3530706;Mogi-Guaçu;200
3541000;Praia Grande;3530706;Mogi-Guaçu;235
3541059;Pratânia;3530706;Mogi-Guaçu;226
3541109;Presidente Alves;3530706;Mogi-Guaçu;317
3541208;Presidente Bernardes;3530706;Mogi-Guaçu;568
3541307;Presidente Epitácio;3530706;Mogi-Guaçu;634
3541406;Presidente Prudente;3530706;Mogi-Guaçu;543
3541505;Presidente Venceslau;3530706;Mogi-Guaçu;599
3541604;Promissão;3530706;Mogi-Guaçu;385
3541653;Quadra;3530706;Mogi-Guaçu;204
3541703;Quatá;3530706;Mogi-Guaçu;467
3541802;Queiroz;3530706;Mogi-Guaçu;428
3541901;Queluz;3530706;Mogi-Guaçu;361
3542008;Quintana;3530706;Mogi-Guaçu;418
3542107;Rafard;3530706;Mogi-Guaçu;131
3542206;Rancharia;3530706;Mogi-Guaçu;485
3542305;Redenção da Serra;3530706;Mogi-Guaçu;291
3542404;Regente Feijó;3530706;Mogi-Guaçu;549
3542503;Reginópolis;3530706;Mogi-Guaçu;316
3542602;Registro;3530706;Mogi-Guaçu;332
3542701;Restinga;3530706;Mogi-Guaçu;246
3542800;Ribeira;3530706;Mogi-Guaçu;409
3542909;Ribeirão Bonito;3530706;Mogi-Guaçu;177
3543006;Ribeirão Branco;3530706;Mogi-Guaçu;348
3543105;Ribeirão Corrente;3530706;Mogi-Guaçu;279
3543204;Ribeirão do Sul;3530706;Mogi-Guaçu;396
3543238;Ribeirão dos Índios;3530706;Mogi-Guaçu;594
3543253;Ribeirão Grande;3530706;Mogi-Guaçu;294
3543303;Ribeirão Pires;3530706;Mogi-Guaçu;227
3543402;Ribeirão Preto;3530706;Mogi-Guaçu;193
3543600;Rifaina;3530706;Mogi-Guaçu;321
3543709;Rincão;3530706;Mogi-Guaçu;204
3543808;Rinópolis;3530706;Mogi-Guaçu;482
3543907;Rio Claro;3530706;Mogi-Guaçu;87
3544004;Rio das Pedras;3530706;Mogi-Guaçu;110
3544103;Rio Grande da Serra;3530706;Mogi-Guaçu;234
3544202;Riolândia;3530706;Mogi-Guaçu;450
3543501;Riversul;3530706;Mogi-Guaçu;385
3544251;Rosana;3530706;Mogi-Guaçu;751
3544301;Roseira;3530706;Mogi-Guaçu;286
3544400;Rubiácea;3530706;Mogi-Guaçu;492
3544509;Rubinéia;3530706;Mogi-Guaçu;546
3544608;Sabino;3530706;Mogi-Guaçu;397
3544707;Sagres;3530706;Mogi-Guaçu;494
3544806;Sales;3530706;Mogi-Guaçu;349
3544905;Sales Oliveira;3530706;Mogi-Guaçu;242
3545001;Salesópolis;3530706;Mogi-Guaçu;234
3545100;Salmourão;3530706;Mogi-Guaçu;506
3545159;Saltinho;3530706;Mogi-Guaçu;114
3545209;Salto;3530706;Mogi-Guaçu;123
3545308;Salto de Pirapora;3530706;Mogi-Guaçu;191
3545407;Salto Grande;3530706;Mogi-Guaçu;387
3545506;Sandovalina;3530706;Mogi-Guaçu;606
3545605;Santa Adélia;3530706;Mogi-Guaçu;284
3545704;Santa Albertina;3530706;Mogi-Guaçu;529
3545803;Santa Bárbara d Oeste;3530706;Mogi-Guaçu;95
3546009;Santa Branca;3530706;Mogi-Guaçu;217
3546108;Santa Clara d Oeste;3530706;Mogi-Guaçu;551
3546207;Santa Cruz da Conceição;3530706;Mogi-Guaçu;95
3546256;Santa Cruz da Esperança;3530706;Mogi-Guaçu;160
3546306;Santa Cruz das Palmeiras;3530706;Mogi-Guaçu;91
3546405;Santa Cruz do Rio Pardo;3530706;Mogi-Guaçu;349
3546504;Santa Ernestina;3530706;Mogi-Guaçu;238
3546603;Santa Fé do Sul;3530706;Mogi-Guaçu;539
3546702;Santa Gertrudes;3530706;Mogi-Guaçu;80
3546801;Santa Isabel;3530706;Mogi-Guaçu;194
3546900;Santa Lúcia;3530706;Mogi-Guaçu;204
3547007;Santa Maria da Serra;3530706;Mogi-Guaçu;157
3547106;Santa Mercedes;3530706;Mogi-Guaçu;595
3547403;Santa Rita d Oeste;3530706;Mogi-Guaçu;128
3547502;Santa Rita do Passa Quatro;3530706;Mogi-Guaçu;128
3547601;Santa Rosa de Viterbo;3530706;Mogi-Guaçu;131
3547650;Santa Salete;3530706;Mogi-Guaçu;515
3547205;Santana da Ponte Pensa;3530706;Mogi-Guaçu;527
3547304;Santana de Parnaíba;3530706;Mogi-Guaçu;147
3547700;Santo Anastácio;3530706;Mogi-Guaçu;577
3547809;Santo André;3530706;Mogi-Guaçu;189
3547908;Santo Antônio da Alegria;3530706;Mogi-Guaçu;177
3548005;Santo Antônio de Posse;3530706;Mogi-Guaçu;46
3548054;Santo Antônio do Aracangua;3530706;Mogi-Guaçu;491
3548104;Santo Antônio do Jardim;3530706;Mogi-Guaçu;44
3548203;Santo Antônio do Pinhal;3530706;Mogi-Guaçu;284
3548302;Santo Expedito;3530706;Mogi-Guaçu;584
3548401;Santópolis do Aguapeí;3530706;Mogi-Guaçu;457
3548500;Santos;3530706;Mogi-Guaçu;236
3548609;São Bento do Sapucaí;3530706;Mogi-Guaçu;290
3548708;São Bernardo do Campo;3530706;Mogi-Guaçu;183
3548807;São Caetano do Sul;3530706;Mogi-Guaçu;179
3548906;São Carlos;3530706;Mogi-Guaçu;146
3549003;São Francisco;3530706;Mogi-Guaçu;519
3549102;São João da Boa Vista;3530706;Mogi-Guaçu;62
3549201;São João das Duas Pontes;3530706;Mogi-Guaçu;486
3549250;São João de Iracema;3530706;Mogi-Guaçu;477
3549300;São João do Pau d Alho;3530706;Mogi-Guaçu;599
3549409;São Joaquim da Barra;3530706;Mogi-Guaçu;261
3549508;São José da Bela Vista;3530706;Mogi-Guaçu;250
3549607;São José do Barreiro;3530706;Mogi-Guaçu;396
3549706;São José do Rio Pardo;3530706;Mogi-Guaçu;100
3549805;São José do Rio Preto;3530706;Mogi-Guaçu;352
3549904;São José dos Campos;3530706;Mogi-Guaçu;215
3549953;São Lourenço da Serra;3530706;Mogi-Guaçu;197
3550001;São Luís do Paraitinga;3530706;Mogi-Guaçu;299
3550100;São Manuel;3530706;Mogi-Guaçu;215
3550209;São Miguel Arcanjo;3530706;Mogi-Guaçu;250
3550308;São Paulo;3530706;Mogi-Guaçu;164
3550407;São Pedro;3530706;Mogi-Guaçu;133
3550506;São Pedro do Turvo;3530706;Mogi-Guaçu;366
3550605;São Roque;3530706;Mogi-Guaçu;184
3550704;São Sebastião;3530706;Mogi-Guaçu;314
3550803;São Sebastião da Grama;3530706;Mogi-Guaçu;96
3550902;São Simão;3530706;Mogi-Guaçu;149
3551009;São Vicente;3530706;Mogi-Guaçu;229
3551108;Sarapuí;3530706;Mogi-Guaçu;216
3551207;Sarutaiá;3530706;Mogi-Guaçu;351
3551306;Sebastianópolis do Sul;3530706;Mogi-Guaçu;418
3551405;Serra Azul;3530706;Mogi-Guaçu;176
3551603;Serra Negra;3530706;Mogi-Guaçu;59
3551504;Serrana;3530706;Mogi-Guaçu;184
3551702;Sertãozinho;3530706;Mogi-Guaçu;213
3551801;Sete Barras;3530706;Mogi-Guaçu;332
3551900;Severínia;3530706;Mogi-Guaçu;308
3552007;Silveiras;3530706;Mogi-Guaçu;347
3552106;Socorro;3530706;Mogi-Guaçu;72
3552205;Sorocaba;3530706;Mogi-Guaçu;165
3552304;Sud Mennucci;3530706;Mogi-Guaçu;527
3552403;Sumaré;3530706;Mogi-Guaçu;91
3552551;Suzanápolis;3530706;Mogi-Guaçu;540
3552502;Suzano;3530706;Mogi-Guaçu;202
3552601;Tabapuã;3530706;Mogi-Guaçu;322
3552700;Tabatinga;3530706;Mogi-Guaçu;245
3552809;Taboão da Serra;3530706;Mogi-Guaçu;174
3552908;Taciba;3530706;Mogi-Guaçu;547
3553005;Taguaí;3530706;Mogi-Guaçu;350
3553104;Taiaçu;3530706;Mogi-Guaçu;262
3553203;Taiúva;3530706;Mogi-Guaçu;255
3553302;Tambaú;3530706;Mogi-Guaçu;103
3553401;Tanabi;3530706;Mogi-Guaçu;391
3553500;Tapiraí;3530706;Mogi-Guaçu;229
3553609;Tapiratiba;3530706;Mogi-Guaçu;122
3553658;Taquaral;3530706;Mogi-Guaçu;254
3553708;Taquaritinga;3530706;Mogi-Guaçu;247
3553807;Taquarituba;3530706;Mogi-Guaçu;331
3553856;Taquarivaí;3530706;Mogi-Guaçu;321
3553906;Tarabai;3530706;Mogi-Guaçu;576
3553955;Tarumã;3530706;Mogi-Guaçu;459
3554003;Tatuí;3530706;Mogi-Guaçu;182
3554102;Taubaté;3530706;Mogi-Guaçu;257
3554201;Tejupá;3530706;Mogi-Guaçu;353
3554300;Teodoro Sampaio;3530706;Mogi-Guaçu;657
3554409;Terra Roxa;3530706;Mogi-Guaçu;294
3554508;Tietê;3530706;Mogi-Guaçu;145
3554607;Timburi;3530706;Mogi-Guaçu;359
3554656;Torre de Pedra;3530706;Mogi-Guaçu;214
3554706;Torrinha;3530706;Mogi-Guaçu;174
3554755;Trabiju;3530706;Mogi-Guaçu;222
3554805;Tremembé;3530706;Mogi-Guaçu;268
3554904;Três Fronteiras;3530706;Mogi-Guaçu;535
3554953;Tuiuti;3530706;Mogi-Guaçu;82
3555000;Tupã;3530706;Mogi-Guaçu;448
3555109;Tupi Paulista;3530706;Mogi-Guaçu;580
3555208;Turiúba;3530706;Mogi-Guaçu;457
3555307;Turmalina;3530706;Mogi-Guaçu;511
3555356;Ubarana;3530706;Mogi-Guaçu;382
3555406;Ubatuba;3530706;Mogi-Guaçu;350
3555505;Ubirajara;3530706;Mogi-Guaçu;344
3555604;Uchoa;3530706;Mogi-Guaçu;329
3555703;União Paulista;3530706;Mogi-Guaçu;416
3555802;Urânia;3530706;Mogi-Guaçu;508
3555901;Uru;3530706;Mogi-Guaçu;335
3556008;Urupês;3530706;Mogi-Guaçu;333
3556107;Valentim Gentil;3530706;Mogi-Guaçu;448
3556206;Valinhos;3530706;Mogi-Guaçu;79
3556305;Valparaíso;3530706;Mogi-Guaçu;498
3556354;Vargem;3530706;Mogi-Guaçu;127
3556404;Vargem Grande do Sul;3530706;Mogi-Guaçu;80
3556453;Vargem Grande Paulista;3530706;Mogi-Guaçu;188
3556503;Várzea Paulista;3530706;Mogi-Guaçu;119
3556602;Vera Cruz;3530706;Mogi-Guaçu;354
3556701;Vinhedo;3530706;Mogi-Guaçu;93
3556800;Viradouro;3530706;Mogi-Guaçu;284
3556909;Vista Alegre do Alto;3530706;Mogi-Guaçu;268
3556958;Vitória Brasil;3530706;Mogi-Guaçu;502
3557006;Votorantim;3530706;Mogi-Guaçu;171
3557105;Votuporanga;3530706;Mogi-Guaçu;435
3557154;Zacarias;3530706;Mogi-Guaçu;437
