# Origem: 3548500 - Santos
# -------------------------------------------------------------------
3548500;Santos;3500105;Adamantina;650
3548500;Santos;3500204;Adolfo;526
3548500;Santos;3500303;Aguaí;264
3548500;Santos;3500402;Águas da Prata;296
3548500;Santos;3500501;Águas de Lindóia;232
3548500;Santos;3500550;Águas de Santa Bárbara;366
3548500;Santos;3500600;Águas de São Pedro;256
3548500;Santos;3500709;Agudos;385
3548500;Santos;3500758;Alambari;225
3548500;Santos;3500808;Alfredo Marcondes;657
3548500;Santos;3500907;Altair;536
3548500;Santos;3501004;Altinópolis;405
3548500;Santos;3501103;Alto Alegre;562
3548500;Santos;3501152;Alumínio;150
3548500;Santos;3501202;Álvares Florence;609
3548500;Santos;3501301;Álvares Machado;639
3548500;Santos;3501400;Álvaro de Carvalho;494
3548500;Santos;3501509;Alvinlândia;488
3548500;Santos;3501608;Americana;199
3548500;Santos;3501707;Américo Brasiliense;355
3548500;Santos;3501806;Américo de Campos;598
3548500;Santos;3501905;Amparo;204
3548500;Santos;3502002;Analândia;286
3548500;Santos;3502101;Andradina;699
3548500;Santos;3502200;Angatuba;286
3548500;Santos;3502309;Anhembi;297
3548500;Santos;3502408;Anhumas;622
3548500;Santos;3502507;Aparecida;241
3548500;Santos;3502606;Aparecida dOeste;701
3548500;Santos;3502705;Apiaí;329
3548500;Santos;3502754;Araçariguama;125
